NycTaxi - Data Understanding
…
PointMeanDistance <- fst::read_fst(here("output/cache-data/PointMeanDistance.fst"), as.data.table = TRUE)

Split the data by month and link with the original parquet files.

ValidZoneSampleByMonth <-
  ValidZoneSample[
    j = request_datetime_extra := request_datetime + minutes(15)
  ][floor_date(request_datetime_extra, unit = "month") == floor_date(request_datetime, unit = "month"),
    .(data = list(.SD)), 
    keyby = c("year", "month"),
    .SDcols = !c("request_datetime_extra")
  ][, source_path := here("raw-data/trip-data") |> dir(recursive = TRUE, full.names = TRUE)]

tibble::as_tibble(ValidZoneSampleByMonth)
#> # A tibble: 24 × 4
#>     year month data               source_path                                   
#>    <dbl> <chr> <list>             <chr>                                         
#>  1  2022 01    <dt [18,668 × 26]> /home/rstudio/NycTaxi/raw-data/trip-data/year…
#>  2  2022 02    <dt [29,536 × 26]> /home/rstudio/NycTaxi/raw-data/trip-data/year…
#>  3  2022 03    <dt [9,543 × 26]>  /home/rstudio/NycTaxi/raw-data/trip-data/year…
#>  4  2022 04    <dt [15,632 × 26]> /home/rstudio/NycTaxi/raw-data/trip-data/year…
#>  5  2022 05    <dt [19,053 × 26]> /home/rstudio/NycTaxi/raw-data/trip-data/year…
#>  6  2022 06    <dt [10,458 × 26]> /home/rstudio/NycTaxi/raw-data/trip-data/year…
#>  7  2022 07    <dt [15,217 × 26]> /home/rstudio/NycTaxi/raw-data/trip-data/year…
#>  8  2022 08    <dt [34,336 × 26]> /home/rstudio/NycTaxi/raw-data/trip-data/year…
#>  9  2022 09    <dt [34,385 × 26]> /home/rstudio/NycTaxi/raw-data/trip-data/year…
#> 10  2022 10    <dt [32,263 × 26]> /home/rstudio/NycTaxi/raw-data/trip-data/year…
#> # ℹ 14 more rows
…
