Defining Baseline – NycTaxi
…
After simulating 60 days, we can use bootstrap to infer the distribution of the mean Daily Hourly Wage for any day in the year by following the next steps.

Resample with replacement a new 60 days hourly wage 3,000 times and calculate the mean of each resample.

set.seed(1586)

BootstrapHourlyWage <-
  specify(DailyHourlyWage, `Daily Hourly Wage` ~ NULL) |>
  generate(reps = 3000, type = "bootstrap") |>
  calculate(stat = "mean")

BootstrapHourlyWage

Response: Daily Hourly Wage (numeric)
# A tibble: 3,000 × 2
   replicate  stat
       <int> <dbl>
 1         1  55.1
 2         2  53.5
 3         3  53.2
 4         4  52.8
 5         5  54.2
 6         6  53.1
 7         7  54.3
 8         8  53.4
 9         9  54.3
10        10  52.6
# ℹ 2,990 more rows
…
